{
  "ok": true,
  "source": "generated",
  "section": "学校公示",
  "page": 3,
  "totalPages": 6,
  "totalItems": 84,
  "itemCountOnPage": 14,
  "items": [
    {
      "id": "3-1-aHR0cHM6Ly9qd2MuZmp0Y20uZWR1LmNuLzIwMjQvMDExMC9jOTU1YTkzMDI4L3BhZ2UuaHRt",
      "title": "关于申报科学出版社行业规划教材 《中医药学概论》编委名单的公示",
      "date": "2024-01-10",
      "link": "https://jwc.fjtcm.edu.cn/2024/0110/c955a93028/page.htm",
      "detailId": "1dda9fa41234055fabf3d67ffcf1ac9465842661",
      "summary": "关于申报科学出版社行业规划教材 《中医药学概论》编委名单的公示。"
    },
    {
      "id": "3-2-aHR0cHM6Ly9qd2MuZmp0Y20uZWR1LmNuLzIwMjMvMTIyMC9jOTU1YTkwNzMxL3BhZ2UuaHRt",
      "title": "关于推荐申报第三批国家级一流本科课程的公示",
      "date": "2023-12-20",
      "link": "https://jwc.fjtcm.edu.cn/2023/1220/c955a90731/page.htm",
      "detailId": "538587139df7faa13bb1f88bb7a9a87a38cf28db",
      "summary": "关于推荐申报第三批国家级一流本科课程的公示。"
    },
    {
      "id": "3-3-aHR0cHM6Ly9qd2MuZmp0Y20uZWR1LmNuLzIwMjMvMDkyOC9jOTU1YTgwMTM0L3BhZ2UuaHRt",
      "title": "福建中医药大学关于林圣杰同学转学（转出）的公示",
      "date": "2023-09-28",
      "link": "https://jwc.fjtcm.edu.cn/2023/0928/c955a80134/page.htm",
      "detailId": "315dd88b04b5aca1fb7b63bd476aa567aa086f75",
      "summary": "福建中医药大学关于林圣杰同学转学（转出）的公示。"
    },
    {
      "id": "3-4-aHR0cHM6Ly9qd2MuZmp0Y20uZWR1LmNuLzIwMjMvMDkyOC9jOTU1YTgwMTMzL3BhZ2UuaHRt",
      "title": "关于退役学生杨振帆转专业审批情况的公示",
      "date": "2023-09-28",
      "link": "https://jwc.fjtcm.edu.cn/2023/0928/c955a80133/page.htm",
      "detailId": "262df6333041b90db5b0578f172f38a5bdfe110d",
      "summary": "关于退役学生杨振帆转专业审批情况的公示。"
    },
    {
      "id": "3-5-aHR0cHM6Ly9qd2MuZmp0Y20uZWR1LmNuLzIwMjMvMDkyNy9jOTU1YTgwMTEzL3BhZ2UuaHRt",
      "title": "关于包智文等7位退役学生转专业审批情况的公示",
      "date": "2023-09-27",
      "link": "https://jwc.fjtcm.edu.cn/2023/0927/c955a80113/page.htm",
      "detailId": "d0256599152ba830ae13daf9fac7fe1edf0d2daa",
      "summary": "关于包智文等7位退役学生转专业审批情况的公示。"
    },
    {
      "id": "3-6-aHR0cHM6Ly9qd2MuZmp0Y20uZWR1LmNuLzIwMjMvMDkyMC9jOTU1YTc5OTY5L3BhZ2UuaHRt",
      "title": "福建中医药大学2024年优秀应届本科毕业生推荐免试攻读研究生名单公示",
      "date": "2023-09-20",
      "link": "https://jwc.fjtcm.edu.cn/2023/0920/c955a79969/page.htm",
      "detailId": "c95d3866ae29b23a3c465f933e58015e00bc0db9",
      "summary": "福建中医药大学2024年优秀应届本科毕业生推荐免试攻读研究生名单公示。"
    },
    {
      "id": "3-7-aHR0cHM6Ly9qd2MuZmp0Y20uZWR1LmNuLzIwMjMvMDkxNC9jOTU1YTc5ODQzL3BhZ2UuaHRt",
      "title": "关于姚少锋退役学生转专业审批情况的公示",
      "date": "2023-09-14",
      "link": "https://jwc.fjtcm.edu.cn/2023/0914/c955a79843/page.htm",
      "detailId": "756b1e3708b0ed7fe6ae90fca5cd5ce5972321c7",
      "summary": "关于姚少锋退役学生转专业审批情况的公示。"
    },
    {
      "id": "3-8-aHR0cHM6Ly9qd2MuZmp0Y20uZWR1LmNuLzIwMjMvMDkxMy9jOTU1YTc5ODM5L3BhZ2UuaHRt",
      "title": "关于叶子等181位同学转专业审批情况的公示",
      "date": "2023-09-14",
      "link": "https://jwc.fjtcm.edu.cn/2023/0913/c955a79839/page.htm",
      "detailId": "956f08a66df57e4dd68afa5c7a7cdbd822f4ae79",
      "summary": "关于叶子等181位同学转专业审批情况的公示。"
    },
    {
      "id": "3-9-aHR0cHM6Ly9qd2MuZmp0Y20uZWR1LmNuLzIwMjMvMDkwNy9jOTU1YTc5NzY2L3BhZ2UuaHRt",
      "title": "关于王轩志等3名退役学生转专业审批情况的公示",
      "date": "2023-09-07",
      "link": "https://jwc.fjtcm.edu.cn/2023/0907/c955a79766/page.htm",
      "detailId": "e2f73a400e3f5d1213ea2aea229f9b2f3d86b202",
      "summary": "关于王轩志等3名退役学生转专业审批情况的公示。"
    },
    {
      "id": "3-10-aHR0cHM6Ly9qd2MuZmp0Y20uZWR1LmNuLzIwMjMvMDkwNy9jOTU1YTc5NzYzL3BhZ2UuaHRt",
      "title": "关于申报人民卫生出版社全国高等学校五年制本科临床医学专业第十轮规划教材增补编委名单的公示",
      "date": "2023-09-07",
      "link": "https://jwc.fjtcm.edu.cn/2023/0907/c955a79763/page.htm",
      "detailId": "3aa7a172e7d379df27707c852dfcb7428e6c473c",
      "summary": "关于申报人民卫生出版社全国高等学校五年制本科临床医学专业第十轮规划教材增..."
    },
    {
      "id": "3-11-aHR0cHM6Ly9qd2MuZmp0Y20uZWR1LmNuLzIwMjMvMDcwMy9jOTU1YTczMTI2L3BhZ2UuaHRt",
      "title": "关于申报科学出版社 “十四五”第二批普通高等教育本科规划教材的公示",
      "date": "2023-07-03",
      "link": "https://jwc.fjtcm.edu.cn/2023/0703/c955a73126/page.htm",
      "detailId": "830663519ab381dc2e4a0404f4511bb635ee92ce",
      "summary": "关于申报科学出版社 “十四五”第二批普通高等教育本科规划教材的公示。"
    },
    {
      "id": "3-12-aHR0cHM6Ly9qd2MuZmp0Y20uZWR1LmNuLzIwMjMvMDUyMi9jOTU1YTcxODk2L3BhZ2UuaHRt",
      "title": "福建中医药大学关于李儒乐同学转学（转出）的公示",
      "date": "2023-05-19",
      "link": "https://jwc.fjtcm.edu.cn/2023/0522/c955a71896/page.htm",
      "detailId": "520b48393f341ab449fd63ca4ffa195dea241d6d",
      "summary": "福建中医药大学关于李儒乐同学转学（转出）的公示。"
    },
    {
      "id": "3-13-aHR0cHM6Ly9qd2MuZmp0Y20uZWR1LmNuLzIwMjMvMDUwOC9jOTU1YTU5MzY3L3BhZ2UuaHRt",
      "title": "关于2022级郑家侦等695位同学报名特色选修模块情况的公示",
      "date": "2023-05-08",
      "link": "https://jwc.fjtcm.edu.cn/2023/0508/c955a59367/page.htm",
      "detailId": "a42753c8cce8aad14b519f505edecc95eb6a1814",
      "summary": "关于2022级郑家侦等695位同学报名特色选修模块情况的公示。"
    },
    {
      "id": "3-14-aHR0cHM6Ly9qd2MuZmp0Y20uZWR1LmNuLzIwMjMvMDQyMC9jOTU1YTU5MzY2L3BhZ2UuaHRt",
      "title": "关于王春娥增补编委的申报公示",
      "date": "2023-04-20",
      "link": "https://jwc.fjtcm.edu.cn/2023/0420/c955a59366/page.htm",
      "detailId": "9e481b25a28b65c405e58ffaf97c990e2962fb29",
      "summary": "关于王春娥增补编委的申报公示。"
    }
  ],
  "fetchedAt": "2026-03-30T17:25:55.272Z",
  "generatedAt": "2026-03-30T17:25:54.590Z"
}
