{
  "ok": true,
  "source": "generated",
  "section": "学校公示",
  "page": 1,
  "totalPages": 6,
  "totalItems": 84,
  "itemCountOnPage": 14,
  "items": [
    {
      "id": "1-1-aHR0cHM6Ly9qd2MuZmp0Y20uZWR1LmNuLzIwMjUvMTIyNC9jOTU1YTExMDQ2OS9wYWdlLmh0bQ",
      "title": "福建中医药大学关于林珅灏同学转学（转入）的公示",
      "date": "2025-12-24",
      "link": "https://jwc.fjtcm.edu.cn/2025/1224/c955a110469/page.htm",
      "detailId": "d1beee8ea3cab966a808b8c6125b7ecf53dab5d7",
      "summary": "福建中医药大学关于林珅灏同学转学（转入）的公示。"
    },
    {
      "id": "1-2-aHR0cHM6Ly9qd2MuZmp0Y20uZWR1LmNuLzIwMjUvMDcxNy9jOTU1YTEwNjcxMi9wYWdlLmh0bQ",
      "title": "关于全国高等医药教育“十五五”规划教材（第一批）主编、副主编、编委申报推荐的公示",
      "date": "2025-07-17",
      "link": "https://jwc.fjtcm.edu.cn/2025/0717/c955a106712/page.htm",
      "detailId": "ef3f1beea5fea7c66a72f7e7276fd74a59589748",
      "summary": "关于全国高等医药教育“十五五”规划教材（第一批）主编、副主编、编委申报推..."
    },
    {
      "id": "1-3-aHR0cHM6Ly9qd2MuZmp0Y20uZWR1LmNuLzIwMjUvMDcxMC9jOTU1YTEwNjY1OC9wYWdlLmh0bQ",
      "title": "关于高等教育出版社“十五五”医学高等教育本科规划教材（中医药类、中西医结合类）推荐遴选的公示",
      "date": "2025-07-10",
      "link": "https://jwc.fjtcm.edu.cn/2025/0710/c955a106658/page.htm",
      "detailId": "55cb72c5bf98b792e64509d0218f5357bb989de4",
      "summary": "关于高等教育出版社“十五五”医学高等教育本科规划教材（中医药类、中西医结..."
    },
    {
      "id": "1-4-aHR0cHM6Ly9qd2MuZmp0Y20uZWR1LmNuLzIwMjUvMDYyNS9jOTU1YTEwNjI2Ni9wYWdlLmh0bQ",
      "title": "关于“人工智能赋能教学改革”试点课程立项的公示",
      "date": "2025-06-25",
      "link": "https://jwc.fjtcm.edu.cn/2025/0625/c955a106266/page.htm",
      "detailId": "ed0c9cdb4f8c4de58009dc960c3600c816977b61",
      "summary": "关于“人工智能赋能教学改革”试点课程立项的公示。"
    },
    {
      "id": "1-5-aHR0cHM6Ly9qd2MuZmp0Y20uZWR1LmNuLzIwMjUvMDYyNC9jOTU1YTEwNjI1Mi9wYWdlLmh0bQ",
      "title": "关于推荐陈艳华同志申报2025年度校优秀教育工作者的公示",
      "date": "2025-06-24",
      "link": "https://jwc.fjtcm.edu.cn/2025/0624/c955a106252/page.htm",
      "detailId": "5c9b7aebeb463db5a43095aad3630bd87221d9d3",
      "summary": "关于推荐陈艳华同志申报2025年度校优秀教育工作者的公示。"
    },
    {
      "id": "1-6-aHR0cHM6Ly9qd2MuZmp0Y20uZWR1LmNuLzIwMjUvMDYxNi9jOTU1YTEwNjA4OS9wYWdlLmh0bQ",
      "title": "关于第二批校级课程思政示范教师评选结果的公示",
      "date": "2025-06-16",
      "link": "https://jwc.fjtcm.edu.cn/2025/0616/c955a106089/page.htm",
      "detailId": "320e78e97c35d09cd7ce96f4d1779dca6efe68c2",
      "summary": "关于第二批校级课程思政示范教师评选结果的公示。"
    },
    {
      "id": "1-7-aHR0cHM6Ly9qd2MuZmp0Y20uZWR1LmNuLzIwMjUvMDYxNi9jOTU1YTEwNjA4OC9wYWdlLmh0bQ",
      "title": "福建中医药大学关于首批微专业立项建设项目和培育项目名单的公示",
      "date": "2025-06-16",
      "link": "https://jwc.fjtcm.edu.cn/2025/0616/c955a106088/page.htm",
      "detailId": "8a8bde64e13a399eff3b6f827ee06fd3836965a8",
      "summary": "福建中医药大学关于首批微专业立项建设项目和培育项目名单的公示。"
    },
    {
      "id": "1-8-aHR0cHM6Ly9qd2MuZmp0Y20uZWR1LmNuLzIwMjUvMDUwNy9jOTU1YTEwNDkzMy9wYWdlLmh0bQ",
      "title": "关于全国中医药行业高等教育“十五五” 规划教材编写人员补申报的公示",
      "date": "2025-05-08",
      "link": "https://jwc.fjtcm.edu.cn/2025/0507/c955a104933/page.htm",
      "detailId": "52962ff566f9d37d366e9b32fb6cbfc47f684b96",
      "summary": "关于全国中医药行业高等教育“十五五” 规划教材编写人员补申报的公示。"
    },
    {
      "id": "1-9-aHR0cHM6Ly9qd2MuZmp0Y20uZWR1LmNuLzIwMjUvMDUwNy9jOTU1YTEwNDk0Mi9wYWdlLmh0bQ",
      "title": "关于2024级罗煜潇等842位同学报名特色选修模块情况的公示",
      "date": "2025-05-07",
      "link": "https://jwc.fjtcm.edu.cn/2025/0507/c955a104942/page.htm",
      "detailId": "a2adb9b46c2c3ed49b61dfbf26bdf07cc561448d",
      "summary": "关于2024级罗煜潇等842位同学报名特色选修模块情况的公示。"
    },
    {
      "id": "1-10-aHR0cHM6Ly9qd2MuZmp0Y20uZWR1LmNuLzIwMjUvMDUwNy9jOTU1YTEwNDkyMS9wYWdlLmh0bQ",
      "title": "关于中国医学教育虚拟仿真案例库 主编、副主编、编者申报推荐的补公示",
      "date": "2025-05-07",
      "link": "https://jwc.fjtcm.edu.cn/2025/0507/c955a104921/page.htm",
      "detailId": "edb968e6d586abe3b0de7c988f6c7c0b6ab6eaad",
      "summary": "关于中国医学教育虚拟仿真案例库 主编、副主编、编者申报推荐的补公示。"
    },
    {
      "id": "1-11-aHR0cHM6Ly9qd2MuZmp0Y20uZWR1LmNuLzIwMjUvMDQyMi9jOTU1YTEwNDE5Ny9wYWdlLmh0bQ",
      "title": "关于中国医学教育虚拟仿真案例库主编、副主编、编者申报推荐的公示",
      "date": "2025-04-22",
      "link": "https://jwc.fjtcm.edu.cn/2025/0422/c955a104197/page.htm",
      "detailId": "3ca17a81d53baceb36e602e75db2edde9203b5b4",
      "summary": "关于中国医学教育虚拟仿真案例库主编、副主编、编者申报推荐的公示。"
    },
    {
      "id": "1-12-aHR0cHM6Ly9qd2MuZmp0Y20uZWR1LmNuLzIwMjUvMDMyNy9jOTU1YTEwMzE0My9wYWdlLmh0bQ",
      "title": "关于李思燥等4位退役学生转专业审批情况的公示",
      "date": "2025-03-27",
      "link": "https://jwc.fjtcm.edu.cn/2025/0327/c955a103143/page.htm",
      "detailId": "2c59cca044e75cf2fcc46e9fae2bc649eb9cc801",
      "summary": "关于李思燥等4位退役学生转专业审批情况的公示。"
    },
    {
      "id": "1-13-aHR0cHM6Ly9qd2MuZmp0Y20uZWR1LmNuLzIwMjUvMDMxOC9jOTU1YTEwMjg2Ni9wYWdlLmh0bQ",
      "title": "关于国家卫生健康委员会“十五五”规划教材暨第五轮全国高等学校中医药教育(本科)规划教材 主编、副主编、编者申报推荐的公示",
      "date": "2025-03-19",
      "link": "https://jwc.fjtcm.edu.cn/2025/0318/c955a102866/page.htm",
      "detailId": "d371b63c6a1fb19a3bac14097b3783a4d6f47f4f",
      "summary": "关于国家卫生健康委员会“十五五”规划教材暨第五轮全国高等学校中医药教育(..."
    },
    {
      "id": "1-14-aHR0cHM6Ly9qd2MuZmp0Y20uZWR1LmNuLzIwMjUvMDIyNC9jOTU1YTEwMjA0OC9wYWdlLmh0bQ",
      "title": "关于全国高等医学院校规划教材暨预防医学专业实践指导系列教材副主编、编委推荐遴选的公示",
      "date": "2025-02-24",
      "link": "https://jwc.fjtcm.edu.cn/2025/0224/c955a102048/page.htm",
      "detailId": "c526308627df531063ef452efc51f7dd97f2c17f",
      "summary": "关于全国高等医学院校规划教材暨预防医学专业实践指导系列教材副主编、编委推..."
    }
  ],
  "fetchedAt": "2026-03-30T17:25:55.001Z",
  "generatedAt": "2026-03-30T17:25:54.590Z"
}
