{
  "ok": true,
  "source": "generated",
  "section": "学校公示",
  "page": 2,
  "totalPages": 6,
  "totalItems": 84,
  "itemCountOnPage": 14,
  "items": [
    {
      "id": "2-1-aHR0cHM6Ly9qd2MuZmp0Y20uZWR1LmNuLzIwMjQvMTIyNC9jOTU1YTEwMTI3Ny9wYWdlLmh0bQ",
      "title": "教务处关于2024年部分教学工作业绩工作量的公示",
      "date": "2024-12-24",
      "link": "https://jwc.fjtcm.edu.cn/2024/1224/c955a101277/page.htm",
      "detailId": "04a17dd26d5d050476ec6ea07ac2444438841575",
      "summary": "教务处关于2024年部分教学工作业绩工作量的公示。"
    },
    {
      "id": "2-2-aHR0cHM6Ly9qd2MuZmp0Y20uZWR1LmNuLzIwMjQvMTIyMy9jOTU1YTEwMTI1Ni9wYWdlLmh0bQ",
      "title": "关于全国中医药行业高等教育“十五五” 规划教材推荐遴选的公示",
      "date": "2024-12-23",
      "link": "https://jwc.fjtcm.edu.cn/2024/1223/c955a101256/page.htm",
      "detailId": "8f6e4986bec9fcabe65c4490d5ae57e2fe56a3f7",
      "summary": "关于全国中医药行业高等教育“十五五” 规划教材推荐遴选的公示。"
    },
    {
      "id": "2-3-aHR0cHM6Ly9qd2MuZmp0Y20uZWR1LmNuLzIwMjQvMTAxNi9jOTU1YTk5NzgxL3BhZ2UuaHRt",
      "title": "关于黄可锨、魏焘颖2位退役学生转专业审批情况的公示",
      "date": "2024-10-16",
      "link": "https://jwc.fjtcm.edu.cn/2024/1016/c955a99781/page.htm",
      "detailId": "2eef09663fea6a477d55f565cf2bac20ec440ad3",
      "summary": "关于黄可锨、魏焘颖2位退役学生转专业审批情况的公示。"
    },
    {
      "id": "2-4-aHR0cHM6Ly9qd2MuZmp0Y20uZWR1LmNuLzIwMjQvMTAxMi9jOTU1YTk5NTA4L3BhZ2UuaHRt",
      "title": "关于2024年度临床类校级一流本科课程立项的公示",
      "date": "2024-10-12",
      "link": "https://jwc.fjtcm.edu.cn/2024/1012/c955a99508/page.htm",
      "detailId": "e54b00cac3171f5d87817e06b117bcf4f3d3ba22",
      "summary": "关于2024年度临床类校级一流本科课程立项的公示。"
    },
    {
      "id": "2-5-aHR0cHM6Ly9qd2MuZmp0Y20uZWR1LmNuLzIwMjQvMDkyMy9jOTU1YTk5MTMxL3BhZ2UuaHRt",
      "title": "关于申报“2024年儿童中医药知识启蒙作品征集活动”的公示",
      "date": "2024-09-23",
      "link": "https://jwc.fjtcm.edu.cn/2024/0923/c955a99131/page.htm",
      "detailId": "2a4c875e4919a9c4d861c012fd97e2f54e144fc1",
      "summary": "关于申报“2024年儿童中医药知识启蒙作品征集活动”的公示。"
    },
    {
      "id": "2-6-aHR0cHM6Ly9qd2MuZmp0Y20uZWR1LmNuLzIwMjQvMDkxOS9jOTU1YTk5MDg5L3BhZ2UuaHRt",
      "title": "关于宋嘉鑫等4位退役学生转专业审批情况的公示",
      "date": "2024-09-19",
      "link": "https://jwc.fjtcm.edu.cn/2024/0919/c955a99089/page.htm",
      "detailId": "3d584771a1b07eb4c033a629699c305b6cfdd81f",
      "summary": "关于宋嘉鑫等4位退役学生转专业审批情况的公示。"
    },
    {
      "id": "2-7-aHR0cHM6Ly9qd2MuZmp0Y20uZWR1LmNuLzIwMjQvMDkxOS9jOTU1YTk5MDg4L3BhZ2UuaHRt",
      "title": "关于叶月等169位同学转专业审批情况的公示",
      "date": "2024-09-19",
      "link": "https://jwc.fjtcm.edu.cn/2024/0919/c955a99088/page.htm",
      "detailId": "9d43d7d29cdd78091268ce3ce83d23aef4dd596e",
      "summary": "关于叶月等169位同学转专业审批情况的公示。"
    },
    {
      "id": "2-8-aHR0cHM6Ly9qd2MuZmp0Y20uZWR1LmNuLzIwMjQvMDkxOS9jOTU1YTk5MDc2L3BhZ2UuaHRt",
      "title": "关于2024年度教学基地先进带教科室（集体）、优秀（临床）带教教师和优秀（临床）教学管理工作者名单的公示",
      "date": "2024-09-19",
      "link": "https://jwc.fjtcm.edu.cn/2024/0919/c955a99076/page.htm",
      "detailId": "ab405a6adf608269cee5064a586aaed0c45c5f70",
      "summary": "关于2024年度教学基地先进带教科室（集体）、优秀（临床）带教教师和优秀..."
    },
    {
      "id": "2-9-aHR0cHM6Ly9qd2MuZmp0Y20uZWR1LmNuLzIwMjQvMDkxOC9jOTU1YTk5MDY5L3BhZ2UuaHRt",
      "title": "福建中医药大学2025年优秀应届本科毕业生推荐免试攻读研究生名单公示",
      "date": "2024-09-18",
      "link": "https://jwc.fjtcm.edu.cn/2024/0918/c955a99069/page.htm",
      "detailId": "3ced340df65a6f73420a096ac4d50faa976e8b2e",
      "summary": "福建中医药大学2025年优秀应届本科毕业生推荐免试攻读研究生名单公示。"
    },
    {
      "id": "2-10-aHR0cHM6Ly9qd2MuZmp0Y20uZWR1LmNuLzIwMjQvMDcwNC9jOTU1YTk3OTMzL3BhZ2UuaHRt",
      "title": "关于科学出版社“十四五”普通高等教育临床医学专业案例版第4轮规划教材主编、副主编、编委及医学专业数字教材的申报遴选公示",
      "date": "2024-07-04",
      "link": "https://jwc.fjtcm.edu.cn/2024/0704/c955a97933/page.htm",
      "detailId": "de72c220b8b378703b673621b668ae93f3076f27",
      "summary": "关于科学出版社“十四五”普通高等教育临床医学专业案例版第4轮规划教材主编..."
    },
    {
      "id": "2-11-aHR0cHM6Ly9qd2MuZmp0Y20uZWR1LmNuLzIwMjQvMDcwNC9jOTU1YTk3OTMyL3BhZ2UuaHRt",
      "title": "关于高等教育出版社医学技术类系列新形态教材主编、副主编、编者的申报遴选公示",
      "date": "2024-07-04",
      "link": "https://jwc.fjtcm.edu.cn/2024/0704/c955a97932/page.htm",
      "detailId": "f05ba55117e40451472d1e91d417e19f4fff9476",
      "summary": "关于高等教育出版社医学技术类系列新形态教材主编、副主编、编者的申报遴选公..."
    },
    {
      "id": "2-12-aHR0cHM6Ly9qd2MuZmp0Y20uZWR1LmNuLzIwMjQvMDYwNS9jOTU1YTk2OTAyL3BhZ2UuaHRt",
      "title": "关于2023级黄开悦等784位同学报名特色选修模块情况的公示",
      "date": "2024-06-05",
      "link": "https://jwc.fjtcm.edu.cn/2024/0605/c955a96902/page.htm",
      "detailId": "be0c73cfb54a426ccb9b8e05ef804bede2ed1626",
      "summary": "关于2023级黄开悦等784位同学报名特色选修模块情况的公示。"
    },
    {
      "id": "2-13-aHR0cHM6Ly9qd2MuZmp0Y20uZWR1LmNuLzIwMjQvMDUzMS9jOTU1YTk2ODM3L3BhZ2UuaHRt",
      "title": "关于全国高等医学教育护理学类专业课程思政案例库主编、副主编及编委的遴选公示",
      "date": "2024-05-31",
      "link": "https://jwc.fjtcm.edu.cn/2024/0531/c955a96837/page.htm",
      "detailId": "9eb53144c8841c1247e583acf695d432fe1ac102",
      "summary": "关于全国高等医学教育护理学类专业课程思政案例库主编、副主编及编委的遴选公..."
    },
    {
      "id": "2-14-aHR0cHM6Ly9qd2MuZmp0Y20uZWR1LmNuLzIwMjQvMDQxMS9jOTU1YTk1NTEzL3BhZ2UuaHRt",
      "title": "关于邓怡等4位退役学生转专业审批情况的公示",
      "date": "2024-04-11",
      "link": "https://jwc.fjtcm.edu.cn/2024/0411/c955a95513/page.htm",
      "detailId": "a9a93e1b5f81e50a96a9c0fec1f18c6d1c438290",
      "summary": "关于邓怡等4位退役学生转专业审批情况的公示。"
    }
  ],
  "fetchedAt": "2026-03-30T17:25:55.117Z",
  "generatedAt": "2026-03-30T17:25:54.590Z"
}
