{
  "ok": true,
  "source": "generated",
  "section": "学校公示",
  "page": 6,
  "totalPages": 6,
  "totalItems": 84,
  "itemCountOnPage": 14,
  "items": [
    {
      "id": "6-1-aHR0cHM6Ly9qd2MuZmp0Y20uZWR1LmNuLzIwMTcvMDcxMS9jOTU1YTE5NDg1L3BhZ2UuaHRt",
      "title": "关于杨雪琳等75位同学转专业审批情况的公示",
      "date": "2017-07-11",
      "link": "https://jwc.fjtcm.edu.cn/2017/0711/c955a19485/page.htm",
      "detailId": "564cee4cea4a0bab4162b7a79c002bc2fca82989",
      "summary": "关于杨雪琳等75位同学转专业审批情况的公示。"
    },
    {
      "id": "6-2-aHR0cHM6Ly9qd2MuZmp0Y20uZWR1LmNuLzIwMTcvMDYyOC9jOTU1YTE5NDgyL3BhZ2UuaHRt",
      "title": "福建中医药大学关于王亚宁同学转学的公示",
      "date": "2017-06-28",
      "link": "https://jwc.fjtcm.edu.cn/2017/0628/c955a19482/page.htm",
      "detailId": "b90b7a9f8c4425217bb21395b112414bdc78ae24",
      "summary": "福建中医药大学关于王亚宁同学转学的公示。"
    },
    {
      "id": "6-3-aHR0cHM6Ly9qd2MuZmp0Y20uZWR1LmNuLzIwMTcvMDYyMy9jOTU1YTE5NDc5L3BhZ2UuaHRt",
      "title": "福建中医药大学关于徐步同学转学的公示",
      "date": "2017-06-23",
      "link": "https://jwc.fjtcm.edu.cn/2017/0623/c955a19479/page.htm",
      "detailId": "d1fd8af5e9360b99dcd0576362ed3a27f95fb933",
      "summary": "福建中医药大学关于徐步同学转学的公示。"
    },
    {
      "id": "6-4-aHR0cHM6Ly9qd2MuZmp0Y20uZWR1LmNuLzIwMTcvMDYwNS9jOTU1YTE5NDc3L3BhZ2UuaHRt",
      "title": "关于2016级徐怀等273位同学报名特色选修模块情况的公示",
      "date": "2017-06-05",
      "link": "https://jwc.fjtcm.edu.cn/2017/0605/c955a19477/page.htm",
      "detailId": "7c776fa4fcc69933d39e0cbfeefe69c12f6db08f",
      "summary": "关于2016级徐怀等273位同学报名特色选修模块情况的公示。"
    },
    {
      "id": "6-5-aHR0cHM6Ly9qd2MuZmp0Y20uZWR1LmNuLzIwMTcvMDUxNi9jOTU1YTE5NDc1L3BhZ2UuaHRt",
      "title": "关于推荐申报2017年福建省精品在线开放课程立项建设课程的公示",
      "date": "2017-05-16",
      "link": "https://jwc.fjtcm.edu.cn/2017/0516/c955a19475/page.htm",
      "detailId": "0bdf01660f31cc35f1e7b9453e4f0566679da8a5",
      "summary": "关于推荐申报2017年福建省精品在线开放课程立项建设课程的公示。"
    },
    {
      "id": "6-6-aHR0cHM6Ly9qd2MuZmp0Y20uZWR1LmNuLzIwMTYvMTIyOC9jOTU1YTE5NDczL3BhZ2UuaHRt",
      "title": "福建中医药大学校外实践基地2015-2016评优对象公示",
      "date": "2016-12-28",
      "link": "https://jwc.fjtcm.edu.cn/2016/1228/c955a19473/page.htm",
      "detailId": "d8a5e559a05a0e57b12dfd5c12661eb49faf59ba",
      "summary": "福建中医药大学校外实践基地2015-2016评优对象公示。"
    },
    {
      "id": "6-7-aHR0cHM6Ly9qd2MuZmp0Y20uZWR1LmNuLzIwMTYvMDkyMi9jOTU1YTE5NDM1L3BhZ2UuaHRt",
      "title": "福建中医药大学2017年优秀应届本科毕业生推荐免试攻读硕士学位研究生名单公示",
      "date": "2016-09-22",
      "link": "https://jwc.fjtcm.edu.cn/2016/0922/c955a19435/page.htm",
      "detailId": "e90ebc77c5156e93afacf63ecca7e77e93b0c31b",
      "summary": "福建中医药大学2017年优秀应届本科毕业生推荐免试攻读硕士学位研究生名单..."
    },
    {
      "id": "6-8-aHR0cHM6Ly9qd2MuZmp0Y20uZWR1LmNuLzIwMTYvMDcyMS9jOTU1YTE5NDMyL3BhZ2UuaHRt",
      "title": "关于曹前等102位同学转专业审批情况的公示",
      "date": "2016-07-21",
      "link": "https://jwc.fjtcm.edu.cn/2016/0721/c955a19432/page.htm",
      "detailId": "a0c143c0e3dff6e392ca588740215566d7be29ec",
      "summary": "关于曹前等102位同学转专业审批情况的公示。"
    },
    {
      "id": "6-9-aHR0cHM6Ly9qd2MuZmp0Y20uZWR1LmNuLzIwMTYvMDcxOC9jOTU1YTE5NDI5L3BhZ2UuaHRt",
      "title": "关于2016年福建省高校精品在线课程申报推荐情况的公示",
      "date": "2016-07-18",
      "link": "https://jwc.fjtcm.edu.cn/2016/0718/c955a19429/page.htm",
      "detailId": "a9c4244b46bcc7e2887fce2b5b859699cdb4e7e0",
      "summary": "关于2016年福建省高校精品在线课程申报推荐情况的公示。"
    },
    {
      "id": "6-10-aHR0cHM6Ly9qd2MuZmp0Y20uZWR1LmNuLzIwMTYvMDUxMy9jOTU1YTE5NDI2L3BhZ2UuaHRt",
      "title": "2015年度本科学生创新学分认定结果公示",
      "date": "2016-05-13",
      "link": "https://jwc.fjtcm.edu.cn/2016/0513/c955a19426/page.htm",
      "detailId": "d6cf9811cf32ba2d5eb68d4d673d5f3e3dda022e",
      "summary": "2015年度本科学生创新学分认定结果公示。"
    },
    {
      "id": "6-11-aHR0cHM6Ly9qd2MuZmp0Y20uZWR1LmNuLzIwMTUvMTEyNi9jOTU1YTE5NDIzL3BhZ2UuaHRt",
      "title": "关于2015年慕课（MOOC）/SPOC课程试点立项建设的公示",
      "date": "2015-11-26",
      "link": "https://jwc.fjtcm.edu.cn/2015/1126/c955a19423/page.htm",
      "detailId": "d2c9319ca8e8dd14f8839ce2ea206bdb29778f39",
      "summary": "关于2015年慕课（MOOC）/SPOC课程试点立项建设的公示。"
    },
    {
      "id": "6-12-aHR0cHM6Ly9qd2MuZmp0Y20uZWR1LmNuLzIwMTUvMTEyMy9jOTU1YTE5NDIwL3BhZ2UuaHRt",
      "title": "关于推荐申报2015年福建省高等学校创新创业教育改革项目的公示",
      "date": "2015-11-23",
      "link": "https://jwc.fjtcm.edu.cn/2015/1123/c955a19420/page.htm",
      "detailId": "3decbc333580f70eee102fcb7ef1fece4a6f73e5",
      "summary": "关于推荐申报2015年福建省高等学校创新创业教育改革项目的公示。"
    },
    {
      "id": "6-13-aHR0cHM6Ly9qd2MuZmp0Y20uZWR1LmNuLzIwMTUvMDgyNi9jOTU1YTE5NDE3L3BhZ2UuaHRt",
      "title": "关于吴侃等110位同学申请转专业复审情况的公示",
      "date": "2015-08-26",
      "link": "https://jwc.fjtcm.edu.cn/2015/0826/c955a19417/page.htm",
      "detailId": "ca4d40cd8e22ab970b4d25aaa82320d52fba2bef",
      "summary": "关于吴侃等110位同学申请转专业复审情况的公示。"
    },
    {
      "id": "6-14-aHR0cHM6Ly9qd2MuZmp0Y20uZWR1LmNuLzIwMTQvMTEyMC9jOTU1YTE5NDE0L3BhZ2UuaHRt",
      "title": "关于2013-2014年度实践基地先进集体、先进个人评审情况的公示",
      "date": "2014-11-20",
      "link": "https://jwc.fjtcm.edu.cn/2014/1120/c955a19414/page.htm",
      "detailId": "abf7243be730afc2e24a261e9e02735c5df403e4",
      "summary": "关于2013-2014年度实践基地先进集体、先进个人评审情况的公示。"
    }
  ],
  "fetchedAt": "2026-03-30T17:25:55.602Z",
  "generatedAt": "2026-03-30T17:25:54.590Z"
}
