{
  "ok": true,
  "source": "generated",
  "section": "学校公示",
  "page": 4,
  "totalPages": 6,
  "totalItems": 84,
  "itemCountOnPage": 14,
  "items": [
    {
      "id": "4-1-aHR0cHM6Ly9qd2MuZmp0Y20uZWR1LmNuLzIwMjMvMDMyNy9jOTU1YTU5MzY1L3BhZ2UuaHRt",
      "title": "关于陈林增补编委申报公示",
      "date": "2023-03-27",
      "link": "https://jwc.fjtcm.edu.cn/2023/0327/c955a59365/page.htm",
      "detailId": "d76778cd851218d4390583e5b99fdc073d57f54d",
      "summary": "关于陈林增补编委申报公示。"
    },
    {
      "id": "4-2-aHR0cHM6Ly9qd2MuZmp0Y20uZWR1LmNuLzIwMjMvMDMyNC9jOTU1YTU5MzY0L3BhZ2UuaHRt",
      "title": "关于汪民等4名退役学生转专业审批情况的公示",
      "date": "2023-03-24",
      "link": "https://jwc.fjtcm.edu.cn/2023/0324/c955a59364/page.htm",
      "detailId": "c23a1ffabdcdb2684cd8c81323044e298ff427dd",
      "summary": "关于汪民等4名退役学生转专业审批情况的公示。"
    },
    {
      "id": "4-3-aHR0cHM6Ly9qd2MuZmp0Y20uZWR1LmNuLzIwMjMvMDMxNi9jOTU1YTU5MzYzL3BhZ2UuaHRt",
      "title": "关于陈红增补公示",
      "date": "2023-03-16",
      "link": "https://jwc.fjtcm.edu.cn/2023/0316/c955a59363/page.htm",
      "detailId": "f6fd6478a4d860a3aa93c89e689190425738607b",
      "summary": "关于陈红增补公示。"
    },
    {
      "id": "4-4-aHR0cHM6Ly9qd2MuZmp0Y20uZWR1LmNuLzIwMjMvMDMxMC9jOTU1YTU5MzYyL3BhZ2UuaHRt",
      "title": "关于马少丹增补公示",
      "date": "2023-03-10",
      "link": "https://jwc.fjtcm.edu.cn/2023/0310/c955a59362/page.htm",
      "detailId": "3816427b1a34d6afa0bd9791f961c3dc77642b0a",
      "summary": "关于马少丹增补公示。"
    },
    {
      "id": "4-5-aHR0cHM6Ly9qd2MuZmp0Y20uZWR1LmNuLzIwMjMvMDIxNC9jOTU1YTU5MzYxL3BhZ2UuaHRt",
      "title": "全国中医药行业高等教育“十四五”规划教材（第二批）《药学文献检索》增补名单的公示",
      "date": "2023-02-14",
      "link": "https://jwc.fjtcm.edu.cn/2023/0214/c955a59361/page.htm",
      "detailId": "c1e7bd915f64a501f94f894bb26f6166a2116951",
      "summary": "全国中医药行业高等教育“十四五”规划教材（第二批）《药学文献检索》增补名..."
    },
    {
      "id": "4-6-aHR0cHM6Ly9qd2MuZmp0Y20uZWR1LmNuLzIwMjMvMDIxMy9jOTU1YTU5MzYwL3BhZ2UuaHRt",
      "title": "中国中医药出版社十四五规划教材第二批《大学生就业指导》增补公示",
      "date": "2023-02-13",
      "link": "https://jwc.fjtcm.edu.cn/2023/0213/c955a59360/page.htm",
      "detailId": "a64dae2c94b1ea577acdf1ba4ae902cb33ba58ba",
      "summary": "中国中医药出版社十四五规划教材第二批《大学生就业指导》增补公示。"
    },
    {
      "id": "4-7-aHR0cHM6Ly9qd2MuZmp0Y20uZWR1LmNuLzIwMjIvMTIyMy9jOTU1YTU5MzU5L3BhZ2UuaHRt",
      "title": "关于申报中国中医药出版社《运动医学》增补编委公示",
      "date": "2022-12-23",
      "link": "https://jwc.fjtcm.edu.cn/2022/1223/c955a59359/page.htm",
      "detailId": "528544928cacb782c3b57bb79aabdaa1ad4a1d0a",
      "summary": "关于申报中国中医药出版社《运动医学》增补编委公示。"
    },
    {
      "id": "4-8-aHR0cHM6Ly9qd2MuZmp0Y20uZWR1LmNuLzIwMjIvMTIyMC9jOTU1YTU5MzU4L3BhZ2UuaHRt",
      "title": "申报中国中医药出版社全国中医药行业高等教育“十四五”规划教材增补编委名单的公示",
      "date": "2022-12-20",
      "link": "https://jwc.fjtcm.edu.cn/2022/1220/c955a59358/page.htm",
      "detailId": "22c91a5026defe32c8f984ca00d990215d1261ed",
      "summary": "申报中国中医药出版社全国中医药行业高等教育“十四五”规划教材增补编委名单..."
    },
    {
      "id": "4-9-aHR0cHM6Ly9qd2MuZmp0Y20uZWR1LmNuLzIwMjIvMTIxNS9jOTU1YTE5MzAyL3BhZ2UuaHRt",
      "title": "关于申报中国中医药出版社增补编委名单的公示",
      "date": "2022-12-15",
      "link": "https://jwc.fjtcm.edu.cn/2022/1215/c955a19302/page.htm",
      "detailId": "770ff2ea2450dd9f781e8ec6b68ae32441acc420",
      "summary": "关于申报中国中医药出版社增补编委名单的公示。"
    },
    {
      "id": "4-10-aHR0cHM6Ly9qd2MuZmp0Y20uZWR1LmNuLzIwMjIvMTEyMS9jOTU1YTE5Mjk2L3BhZ2UuaHRt",
      "title": "关于申报人民卫生出版社全国高等学校五年制本科临床医学专业第十轮规划教材主编、副主编及编者推荐名单的公示",
      "date": "2022-11-21",
      "link": "https://jwc.fjtcm.edu.cn/2022/1121/c955a19296/page.htm",
      "detailId": "71875fe718587a701e5011a723fb34cf216d49cf",
      "summary": "关于申报人民卫生出版社全国高等学校五年制本科临床医学专业第十轮规划教材主..."
    },
    {
      "id": "4-11-aHR0cHM6Ly9qd2MuZmp0Y20uZWR1LmNuLzIwMjIvMTEyMS9jOTU1YTE5Mjk0L3BhZ2UuaHRt",
      "title": "关于申报人民卫生出版社“十四五”中西医结合类专业规划教材增补编委名单的公示",
      "date": "2022-11-21",
      "link": "https://jwc.fjtcm.edu.cn/2022/1121/c955a19294/page.htm",
      "detailId": "e553f30f68e2036f16c95ca3649ba5859bc4dc08",
      "summary": "关于申报人民卫生出版社“十四五”中西医结合类专业规划教材增补编委名单的公..."
    },
    {
      "id": "4-12-aHR0cHM6Ly9qd2MuZmp0Y20uZWR1LmNuLzIwMjIvMTAyMS9jOTU1YTE5MjkxL3BhZ2UuaHRt",
      "title": "关于朱舒斌等2名退役学生转专业 审批情况的公示",
      "date": "2022-10-21",
      "link": "https://jwc.fjtcm.edu.cn/2022/1021/c955a19291/page.htm",
      "detailId": "31853f7dc15c385d6fd84697c32c2742a035bd10",
      "summary": "关于朱舒斌等2名退役学生转专业 审批情况的公示。"
    },
    {
      "id": "4-13-aHR0cHM6Ly9qd2MuZmp0Y20uZWR1LmNuLzIwMjIvMTAxMC9jOTU1YTE5Mjg4L3BhZ2UuaHRt",
      "title": "关于申报人民卫生出版社“中西医结合类专业课程思政教学案例集”增补编委名单的公示",
      "date": "2022-10-10",
      "link": "https://jwc.fjtcm.edu.cn/2022/1010/c955a19288/page.htm",
      "detailId": "d4a90403fc4c7a3606ff66076b0168a6c5558d67",
      "summary": "关于申报人民卫生出版社“中西医结合类专业课程思政教学案例集”增补编委名单..."
    },
    {
      "id": "4-14-aHR0cHM6Ly9qd2MuZmp0Y20uZWR1LmNuLzIwMjIvMTAwOS9jOTU1YTE5Mjg3L3BhZ2UuaHRt",
      "title": "关于申报人民卫生出版社“十四五”规划教材第四轮全国高等学校中医药教育教材（第二批）增补编委名单的公示",
      "date": "2022-10-09",
      "link": "https://jwc.fjtcm.edu.cn/2022/1009/c955a19287/page.htm",
      "detailId": "561fd6f474eba007458c95c8ad38033d03144a5c",
      "summary": "关于申报人民卫生出版社“十四五”规划教材第四轮全国高等学校中医药教育教材..."
    }
  ],
  "fetchedAt": "2026-03-30T17:25:55.387Z",
  "generatedAt": "2026-03-30T17:25:54.590Z"
}
