{
  "ok": true,
  "source": "generated",
  "section": "学校公示",
  "page": 5,
  "totalPages": 6,
  "totalItems": 84,
  "itemCountOnPage": 14,
  "items": [
    {
      "id": "5-1-aHR0cHM6Ly9qd2MuZmp0Y20uZWR1LmNuLzIwMjIvMDYyNy9jOTU1YTE5Mjg1L3BhZ2UuaHRt",
      "title": "2022-2023学年教材计划公示",
      "date": "2022-06-27",
      "link": "https://jwc.fjtcm.edu.cn/2022/0627/c955a19285/page.htm",
      "detailId": "514d9b4e2a54ee627915eda1a62608528f8c1d68",
      "summary": "2022-2023学年教材计划公示。"
    },
    {
      "id": "5-2-aHR0cHM6Ly9qd2MuZmp0Y20uZWR1LmNuLzIwMjIvMDYwNy9jOTU1YTE5MjgyL3BhZ2UuaHRt",
      "title": "“健康服务与管理专业”规划教材主编、副主编、编委推荐名单的公示",
      "date": "2022-06-07",
      "link": "https://jwc.fjtcm.edu.cn/2022/0607/c955a19282/page.htm",
      "detailId": "f21ccd83293d4612a3649c4d59e22fb7d12f408a",
      "summary": "“健康服务与管理专业”规划教材主编、副主编、编委推荐名单的公示。"
    },
    {
      "id": "5-3-aHR0cHM6Ly9qd2MuZmp0Y20uZWR1LmNuLzIwMjIvMDYwNi9jOTU1YTE5MjgxL3BhZ2UuaHRt",
      "title": "关于2021级唐昆等704位同学报名特色选修模块情况的公示",
      "date": "2022-06-06",
      "link": "https://jwc.fjtcm.edu.cn/2022/0606/c955a19281/page.htm",
      "detailId": "8d21075fd66e55f23830a7168fba507187714da3",
      "summary": "关于2021级唐昆等704位同学报名特色选修模块情况的公示。"
    },
    {
      "id": "5-4-aHR0cHM6Ly9qd2MuZmp0Y20uZWR1LmNuLzIwMjIvMDYwMS9jOTU1YTE5Mjc3L3BhZ2UuaHRt",
      "title": "关于申报中国医药科技出版社“普通高等中医药院校药学类专业第三轮教材”修订编写推荐名单公示",
      "date": "2022-06-01",
      "link": "https://jwc.fjtcm.edu.cn/2022/0601/c955a19277/page.htm",
      "detailId": "594590acbf3efc81fc5d23d12475b32a33801d16",
      "summary": "关于申报中国医药科技出版社“普通高等中医药院校药学类专业第三轮教材”修订..."
    },
    {
      "id": "5-5-aHR0cHM6Ly9qd2MuZmp0Y20uZWR1LmNuLzIwMjEvMDUxNy9jOTU1YTE5NTA2L3BhZ2UuaHRt",
      "title": "关于2020级黄淑妃等688位同学报名特色选修模块情况的公示",
      "date": "2021-05-17",
      "link": "https://jwc.fjtcm.edu.cn/2021/0517/c955a19506/page.htm",
      "detailId": "57d55d8eb830a12f5fc672568c1ad29495e94e72",
      "summary": "关于2020级黄淑妃等688位同学报名特色选修模块情况的公示。"
    },
    {
      "id": "5-6-aHR0cHM6Ly9qd2MuZmp0Y20uZWR1LmNuLzIwMjAvMTIxMS9jOTU1YTE5NTAzL3BhZ2UuaHRt",
      "title": "关于中国中医药出版社开展 “2020年万名学子教材捐助”推荐名单的公示",
      "date": "2020-12-11",
      "link": "https://jwc.fjtcm.edu.cn/2020/1211/c955a19503/page.htm",
      "detailId": "4138fe2303f29c518f849376142a7bf3a04521be",
      "summary": "关于中国中医药出版社开展 “2020年万名学子教材捐助”推荐名单的公示。"
    },
    {
      "id": "5-7-aHR0cHM6Ly9qd2MuZmp0Y20uZWR1LmNuLzIwMjAvMDUyNi9jOTU1YTE5NTAxL3BhZ2UuaHRt",
      "title": "关于2019级曾志杭等684位同学报名特色选修模块情况的公示",
      "date": "2020-05-26",
      "link": "https://jwc.fjtcm.edu.cn/2020/0526/c955a19501/page.htm",
      "detailId": "0674f70ac19d30bba08206e0190fcb00a2793373",
      "summary": "关于2019级曾志杭等684位同学报名特色选修模块情况的公示。"
    },
    {
      "id": "5-8-aHR0cHM6Ly9qd2MuZmp0Y20uZWR1LmNuLzIwMTkvMDQyOS9jOTU1YTE5NTAwL3BhZ2UuaHRt",
      "title": "关于2018级何勋涛等677位同学报名特色选修模块情况的公示",
      "date": "2019-04-29",
      "link": "https://jwc.fjtcm.edu.cn/2019/0429/c955a19500/page.htm",
      "detailId": "2a9cb323e0922dee71793bde6871befba8640b7d",
      "summary": "关于2018级何勋涛等677位同学报名特色选修模块情况的公示。"
    },
    {
      "id": "5-9-aHR0cHM6Ly9qd2MuZmp0Y20uZWR1LmNuLzIwMTgvMTIyMS9jOTU1YTE5NDk5L3BhZ2UuaHRt",
      "title": "福建中医药大学省级创新创业教育改革项目结项审核结果公示",
      "date": "2018-12-21",
      "link": "https://jwc.fjtcm.edu.cn/2018/1221/c955a19499/page.htm",
      "detailId": "56b2d5bbed417ee04016cf457ea64f06aec50cf3",
      "summary": "福建中医药大学省级创新创业教育改革项目结项审核结果公示。"
    },
    {
      "id": "5-10-aHR0cHM6Ly9qd2MuZmp0Y20uZWR1LmNuLzIwMTgvMTEyNy9jOTU1YTE5NDk4L3BhZ2UuaHRt",
      "title": "福建中医药大学2017-2018年度校外实践基地评选结果公示",
      "date": "2018-11-27",
      "link": "https://jwc.fjtcm.edu.cn/2018/1127/c955a19498/page.htm",
      "detailId": "51064aad05fd7d9e6c5a7d82c637ae0f7761f687",
      "summary": "福建中医药大学2017-2018年度校外实践基地评选结果公示。"
    },
    {
      "id": "5-11-aHR0cHM6Ly9qd2MuZmp0Y20uZWR1LmNuLzIwMTgvMDYxMi9jOTU1YTE5NDk3L3BhZ2UuaHRt",
      "title": "关于2017级叶英菱等284位同学报名特色选修模块情况的公示",
      "date": "2018-06-12",
      "link": "https://jwc.fjtcm.edu.cn/2018/0612/c955a19497/page.htm",
      "detailId": "5f105598e56aba5d180466fa8ab36be742c0bb9e",
      "summary": "关于2017级叶英菱等284位同学报名特色选修模块情况的公示。"
    },
    {
      "id": "5-12-aHR0cHM6Ly9qd2MuZmp0Y20uZWR1LmNuLzIwMTcvMDkyMS9jOTU1YTE5NDk2L3BhZ2UuaHRt",
      "title": "福建中医药大学2018年优秀应届本科毕业生推荐免试攻读硕士学位研究生名单公示",
      "date": "2017-09-21",
      "link": "https://jwc.fjtcm.edu.cn/2017/0921/c955a19496/page.htm",
      "detailId": "24864638e474be1ea86f47229fc55d4fef3fafe8",
      "summary": "福建中医药大学2018年优秀应届本科毕业生推荐免试攻读硕士学位研究生名单..."
    },
    {
      "id": "5-13-aHR0cHM6Ly9qd2MuZmp0Y20uZWR1LmNuLzIwMTcvMDcxMy9jOTU1YTE5NDk1L3BhZ2UuaHRt",
      "title": "2017年新专业申报公示",
      "date": "2017-07-13",
      "link": "https://jwc.fjtcm.edu.cn/2017/0713/c955a19495/page.htm",
      "detailId": "fc2bae4e98441b66b95d038cd03e389dddc59162",
      "summary": "2017年新专业申报公示。"
    },
    {
      "id": "5-14-aHR0cHM6Ly9qd2MuZmp0Y20uZWR1LmNuLzIwMTcvMDcxMy9jOTU1YTE5NDk0L3BhZ2UuaHRt",
      "title": "关于2017年校级创新创业教育改革项目拟立项并推荐申报省级立项的公示",
      "date": "2017-07-13",
      "link": "https://jwc.fjtcm.edu.cn/2017/0713/c955a19494/page.htm",
      "detailId": "380c0ab907281eb9e58a8cdb444a096245494701",
      "summary": "关于2017年校级创新创业教育改革项目拟立项并推荐申报省级立项的公示。"
    }
  ],
  "fetchedAt": "2026-03-30T17:25:55.518Z",
  "generatedAt": "2026-03-30T17:25:54.590Z"
}
